{
  "docroot": "./sites/all/themes/tbf/brickthemesass/",
  "sass": {
    "src" : "scss/**/*.scss",
    "dest": "processed/css"
  },
  "scripts": {
    "src" : "js/**/*.js",
    "dest": "processed/js",
    "src_header": {
      "jquery": "bower_components/jquery/dist/jquery.min.js",
      "drupal" : "js/header/drupal.js"
    },
    "src_footer" : {
      "app" : "js/footer/app.js",
      "menu" : "bower_components/tbf-menu/tbf-menu.js",
      "forms" : "bower_components/parsleyjs/dist/parsley.min.js",
      "tabs": "bower_components/BasicTabs/js/basicTabs.js",
      "equal": "bower_components/Equalizer/js/jquery.equalizer.min.js",
      "modal" : "bower_components/magnific-popup/dist/jquery.magnific-popup.min.js",
      "tips" : "bower_components/tipso/src/tipso.min.js"
    }
  },
  "sprites": {
    "imgsrc" : "img/sprites/*.png",
    "stylesrc" : "processed/sprites/sprite.png",
    "dest": "processed/sprites",
    "scssdest": "scss/base"
  },
  "processed" : {
    "src" : "processed"
  }
}